idMember,firstname,lastname,birthday,e-mail,password
1,Kaspar,Tallinn,1987-03-18,kaspartall3@gmail.com,123456
4,Muki,Kutsikas,1955-01-24,adfdafa@gmail.com,654ss321
10,Mati,Mänd,2012-12-12,vz@dfs.ee,1243
11,Marku,Tarkusekese,1800-01-02,muki@juki.ee,111222
13,Kati,Ilves,2010-01-01,oor@sss.ee,456
17,Marco,Strippar,2011-01-01,aaa@aa.ee,111222
18,Kuku,Pai,2001-01-01,aalo@ms.ee,5555
19,Mati,Kati,2011-11-11,kjds@kjs.ee,3322
20,Kuki,Turuki,1991-02-20,barbara@hhh.ee,7789
21,Kaupo,Aas,1980-11-11,aa@fd.ee,66666
23,John,Smith,1987-10-12,john@smith.com,john
24,Margarita,Treeforest,1977-12-10,maggy@go.com,maggy
25,Elisabeth,Clay,1995-02-02,clay@clay.com,clay
37,May,June,1966-06-04,may@may.com,may
38,May,Flower,1999-11-11,flower@may.com,flower
39,Libby,Brown,1980-11-01,libby@libby.fi,libby
40,Kalle,Rulle,1965-11-11,kalle@kalle.ee,kalle
41,Villu,Tilillu,2000-12-06,villu@aaoo.ee,villu
42,Oskar,Puskar,2000-06-22,ossu@mail.ee,ossu
43,Karmo,Parm,1966-03-03,parm@hot.ee,aaa
44,Vinx,Black,1947-11-14,vinx@main.com,kkk
45,Lorry,Sorry,1954-11-11,lorr@yahoo.com,55
46,Sander,Lucioperca,1993-12-25,sander@gmail.com,sander
